{
  "_id": "qpwoeiruryt1234",
  "transactionDate": "2020-03-15T15:00:00Z",
  "status": "In transit",
  "total": 760
}
{
  "_id": "q123414315414",
  "transactionDate": "2020-03-18T12:00:00Z",
  "status": "Preparing",
  "total": 380
}